<?xml version="1.0" encoding="utf-8"?>
<!-- Generator: Adobe Illustrator 22.0.0, SVG Export Plug-In . SVG Version: 6.00 Build 0)  -->
<svg version="1.1" xmlns="http://www.w3.org/2000/svg" xmlns:xlink="http://www.w3.org/1999/xlink" x="0px" y="0px"
	 viewBox="0 0 1920 800" style="enable-background:new 0 0 1920 800;" xml:space="preserve">
<style type="text/css">
	.st0{display:none;}
	.st1{display:inline;}
</style>
<g id="Layer_1" class="st0">
	<path class="st1" d="M1817,626.6L82.8,785c-17.9,1.6-33.8-11.6-35.5-29.5c0,0,0,0,0,0l-89.7-978.2c-1.6-17.9,11.6-33.8,29.5-35.5
		c0,0,0,0,0,0l1958.2-118.4c17.9-1.6,33.8,11.6,35.5,29.5c0,0,0,0,0,0l-134.3,938.2C1848.1,609.1,1834.9,624.9,1817,626.6
		L1817,626.6z"/>
</g>
<g id="Layer_2">
	<ellipse cx="960" cy="248.5" rx="1151.5" ry="550.5"/>
</g>
</svg>
