<?xml version="1.0" encoding="utf-8"?>
<!-- Generator: Adobe Illustrator 22.0.0, SVG Export Plug-In . SVG Version: 6.00 Build 0)  -->
<svg version="1.1" id="Layer_1" xmlns="http://www.w3.org/2000/svg" xmlns:xlink="http://www.w3.org/1999/xlink" x="0px" y="0px"
	 viewBox="0 0 335 97.6" style="enable-background:new 0 0 335 97.6;" xml:space="preserve">
<style type="text/css">
	.st0{fill:#F4CC08;}
	.st1{fill:#E2B588;}
	.st2{fill:#896338;}
	.st3{fill:#B28759;}
	.st4{fill:#513624;}
	.st5{fill:#E8BF9A;}
	.st6{fill:#1E3D7C;}
	.st7{fill:#A87E4C;}
	.st8{opacity:0.8;fill:#D8B79E;enable-background:new    ;}
	.st9{fill:#CC7133;}
	.st10{fill:#89471A;}
	.st11{fill:#CE763A;}
	.st12{fill:#994710;}
	.st13{fill:#F4A071;}
	.st14{fill:#E58F5E;}
	.st15{fill:#563F33;}
	.st16{fill:#E58957;}
	.st17{fill:#98ABAF;}
	.st18{fill:#5E676D;}
	.st19{fill:#DAEBEF;}
</style>
<g>
	<path class="st0" d="M111.1,49.1h-4.5l-7.3-12.7h-0.1c0.1,2.2,0.2,3.9,0.2,4.8v7.9h-3.2V32.2h4.5l7.3,12.6h0.1
		c-0.1-2.2-0.2-3.7-0.2-4.6v-8h3.2V49.1z"/>
	<path class="st0" d="M130.7,40.6c0,2.8-0.7,4.9-2.1,6.4c-1.4,1.5-3.4,2.2-5.9,2.2s-4.6-0.7-5.9-2.2c-1.4-1.5-2.1-3.6-2.1-6.4
		c0-2.8,0.7-4.9,2.1-6.4c1.4-1.5,3.4-2.2,6-2.2c2.6,0,4.6,0.7,5.9,2.2C130,35.7,130.7,37.8,130.7,40.6z M118.4,40.6
		c0,1.9,0.4,3.3,1.1,4.2c0.7,1,1.8,1.4,3.2,1.4c2.8,0,4.3-1.9,4.3-5.7c0-3.8-1.4-5.7-4.2-5.7c-1.4,0-2.5,0.5-3.2,1.4
		C118.7,37.3,118.4,38.8,118.4,40.6z"/>
	<path class="st0" d="M143.8,42.6v6.5h-3.6V32.2h4.9c2.3,0,4,0.4,5.1,1.2c1.1,0.8,1.6,2.1,1.6,3.8c0,1-0.3,1.9-0.8,2.6
		c-0.5,0.8-1.3,1.4-2.3,1.8c2.5,3.8,4.2,6.2,5,7.3h-4l-4-6.5H143.8z M143.8,39.7h1.2c1.1,0,2-0.2,2.5-0.6c0.5-0.4,0.8-1,0.8-1.8
		c0-0.8-0.3-1.4-0.8-1.7s-1.4-0.5-2.6-0.5h-1.1V39.7z"/>
	<path class="st0" d="M165.5,49.1h-9.7V32.2h9.7v2.9h-6.1v3.7h5.7v2.9h-5.7v4.3h6.1V49.1z"/>
	<path class="st0" d="M176.2,35c-1.3,0-2.4,0.5-3.1,1.5c-0.7,1-1.1,2.4-1.1,4.2c0,3.8,1.4,5.6,4.2,5.6c1.2,0,2.6-0.3,4.3-0.9v3
		c-1.4,0.6-2.9,0.9-4.6,0.9c-2.4,0-4.3-0.7-5.6-2.2c-1.3-1.5-1.9-3.6-1.9-6.4c0-1.8,0.3-3.3,1-4.6s1.6-2.3,2.7-3
		c1.2-0.7,2.6-1.1,4.2-1.1c1.6,0,3.3,0.4,4.9,1.2l-1.2,2.9c-0.6-0.3-1.3-0.6-1.9-0.8C177.4,35.1,176.8,35,176.2,35z"/>
	<path class="st0" d="M199.3,40.6c0,2.8-0.7,4.9-2.1,6.4c-1.4,1.5-3.4,2.2-5.9,2.2c-2.6,0-4.6-0.7-5.9-2.2c-1.4-1.5-2.1-3.6-2.1-6.4
		c0-2.8,0.7-4.9,2.1-6.4c1.4-1.5,3.4-2.2,6-2.2c2.6,0,4.6,0.7,5.9,2.2C198.7,35.7,199.3,37.8,199.3,40.6z M187.1,40.6
		c0,1.9,0.4,3.3,1.1,4.2c0.7,1,1.8,1.4,3.2,1.4c2.8,0,4.3-1.9,4.3-5.7c0-3.8-1.4-5.7-4.2-5.7c-1.4,0-2.5,0.5-3.2,1.4
		C187.4,37.3,187.1,38.8,187.1,40.6z"/>
	<path class="st0" d="M206.4,42.6v6.5h-3.6V32.2h4.9c2.3,0,4,0.4,5.1,1.2c1.1,0.8,1.6,2.1,1.6,3.8c0,1-0.3,1.9-0.8,2.6
		c-0.5,0.8-1.3,1.4-2.3,1.8c2.5,3.8,4.2,6.2,5,7.3h-4l-4-6.5H206.4z M206.4,39.7h1.2c1.1,0,2-0.2,2.5-0.6c0.5-0.4,0.8-1,0.8-1.8
		c0-0.8-0.3-1.4-0.8-1.7s-1.4-0.5-2.6-0.5h-1.1V39.7z"/>
	<path class="st0" d="M232.4,40.5c0,2.8-0.8,4.9-2.4,6.4c-1.6,1.5-3.9,2.2-6.8,2.2h-4.8V32.2h5.3c2.7,0,4.9,0.7,6.4,2.2
		C231.6,35.9,232.4,37.9,232.4,40.5z M228.7,40.6c0-3.6-1.6-5.4-4.8-5.4H222v11h1.5C226.9,46.1,228.7,44.3,228.7,40.6z"/>
	<path class="st0" d="M245.5,49.1H242V32.2h9.6v2.9h-6.1v4.3h5.7v2.9h-5.7V49.1z"/>
	<path class="st0" d="M270.2,40.6c0,2.8-0.7,4.9-2.1,6.4c-1.4,1.5-3.4,2.2-5.9,2.2s-4.6-0.7-5.9-2.2c-1.4-1.5-2.1-3.6-2.1-6.4
		c0-2.8,0.7-4.9,2.1-6.4c1.4-1.5,3.4-2.2,6-2.2c2.6,0,4.6,0.7,5.9,2.2C269.5,35.7,270.2,37.8,270.2,40.6z M257.9,40.6
		c0,1.9,0.4,3.3,1.1,4.2c0.7,1,1.8,1.4,3.2,1.4c2.8,0,4.3-1.9,4.3-5.7c0-3.8-1.4-5.7-4.2-5.7c-1.4,0-2.5,0.5-3.2,1.4
		C258.3,37.3,257.9,38.8,257.9,40.6z"/>
	<path class="st0" d="M287.4,32.2v10.9c0,1.2-0.3,2.3-0.8,3.3s-1.4,1.7-2.4,2.2c-1.1,0.5-2.3,0.7-3.7,0.7c-2.2,0-3.8-0.6-5-1.7
		c-1.2-1.1-1.8-2.6-1.8-4.6V32.2h3.6v10.3c0,1.3,0.3,2.2,0.8,2.9c0.5,0.6,1.4,0.9,2.6,0.9c1.2,0,2-0.3,2.5-0.9
		c0.5-0.6,0.8-1.6,0.8-2.9V32.2H287.4z"/>
	<path class="st0" d="M306.5,49.1h-4.5l-7.3-12.7h-0.1c0.1,2.2,0.2,3.9,0.2,4.8v7.9h-3.2V32.2h4.5l7.3,12.6h0.1
		c-0.1-2.2-0.2-3.7-0.2-4.6v-8h3.2V49.1z"/>
	<path class="st0" d="M324.7,40.5c0,2.8-0.8,4.9-2.4,6.4c-1.6,1.5-3.9,2.2-6.8,2.2h-4.8V32.2h5.3c2.7,0,4.9,0.7,6.4,2.2
		C323.9,35.9,324.7,37.9,324.7,40.5z M320.9,40.6c0-3.6-1.6-5.4-4.8-5.4h-1.9v11h1.5C319.2,46.1,320.9,44.3,320.9,40.6z"/>
	<path d="M150.6,57.8c0,0.9-0.3,1.7-0.9,2.2c-0.6,0.5-1.4,0.7-2.5,0.7h-0.8v3.1h-1.9V55h2.8c1.1,0,1.9,0.2,2.4,0.7
		C150.3,56.2,150.6,56.9,150.6,57.8z M146.4,59.2h0.6c0.6,0,1-0.1,1.3-0.3c0.3-0.2,0.4-0.6,0.4-1c0-0.4-0.1-0.8-0.4-1
		c-0.2-0.2-0.6-0.3-1.1-0.3h-0.8V59.2z"/>
	<path d="M153.9,63.8h-1.8v-9.3h1.8V63.8z"/>
	<path d="M158.9,63.9c-1.1,0-1.9-0.3-2.5-0.9c-0.6-0.6-0.9-1.4-0.9-2.5c0-1.1,0.3-2,0.8-2.6c0.6-0.6,1.3-0.9,2.3-0.9
		c0.9,0,1.7,0.3,2.2,0.8s0.8,1.3,0.8,2.2v0.9h-4.3c0,0.5,0.2,0.9,0.5,1.2c0.3,0.3,0.7,0.4,1.2,0.4c0.4,0,0.8,0,1.1-0.1
		s0.7-0.2,1.1-0.4v1.4c-0.3,0.2-0.7,0.3-1,0.4C159.8,63.9,159.4,63.9,158.9,63.9z M158.6,58.3c-0.4,0-0.7,0.1-0.9,0.4
		c-0.2,0.2-0.3,0.6-0.4,1h2.6c0-0.5-0.1-0.8-0.4-1C159.3,58.4,159,58.3,158.6,58.3z"/>
	<path d="M167.3,63.8l-0.4-0.9h0c-0.3,0.4-0.6,0.7-0.9,0.8c-0.3,0.1-0.8,0.2-1.3,0.2c-0.6,0-1.1-0.2-1.5-0.6s-0.6-0.9-0.6-1.6
		c0-0.7,0.2-1.2,0.7-1.6c0.5-0.3,1.2-0.5,2.2-0.6l1.2,0v-0.3c0-0.7-0.3-1-1-1c-0.5,0-1.2,0.2-1.9,0.5l-0.6-1.2
		c0.8-0.4,1.6-0.6,2.6-0.6c0.9,0,1.6,0.2,2.1,0.6c0.5,0.4,0.7,1,0.7,1.8v4.5H167.3z M166.8,60.7l-0.7,0c-0.5,0-0.9,0.1-1.2,0.3
		s-0.4,0.4-0.4,0.8c0,0.5,0.3,0.8,0.9,0.8c0.4,0,0.8-0.1,1-0.4s0.4-0.6,0.4-1V60.7z"/>
	<path d="M175.2,61.8c0,0.7-0.2,1.2-0.7,1.6c-0.5,0.4-1.2,0.5-2.1,0.5c-0.5,0-0.9,0-1.2-0.1c-0.3-0.1-0.7-0.2-1-0.3V62
		c0.3,0.2,0.7,0.3,1.1,0.4c0.4,0.1,0.8,0.2,1.1,0.2c0.7,0,1-0.2,1-0.6c0-0.1,0-0.3-0.1-0.4c-0.1-0.1-0.2-0.2-0.5-0.3
		c-0.2-0.1-0.5-0.2-0.9-0.4c-0.5-0.2-0.9-0.4-1.1-0.6c-0.2-0.2-0.4-0.4-0.5-0.6s-0.2-0.5-0.2-0.9c0-0.6,0.2-1.1,0.7-1.4
		c0.5-0.3,1.1-0.5,2-0.5c0.8,0,1.6,0.2,2.4,0.5l-0.6,1.3c-0.3-0.1-0.6-0.3-0.9-0.4c-0.3-0.1-0.6-0.1-0.9-0.1c-0.5,0-0.8,0.1-0.8,0.4
		c0,0.2,0.1,0.3,0.3,0.4c0.2,0.1,0.6,0.3,1.1,0.5c0.5,0.2,0.9,0.4,1.1,0.6c0.2,0.2,0.4,0.4,0.5,0.6
		C175.1,61.2,175.2,61.5,175.2,61.8z"/>
	<path d="M179.6,63.9c-1.1,0-1.9-0.3-2.5-0.9c-0.6-0.6-0.9-1.4-0.9-2.5c0-1.1,0.3-2,0.8-2.6c0.6-0.6,1.3-0.9,2.3-0.9
		c0.9,0,1.7,0.3,2.2,0.8s0.8,1.3,0.8,2.2v0.9H178c0,0.5,0.2,0.9,0.5,1.2c0.3,0.3,0.7,0.4,1.2,0.4c0.4,0,0.8,0,1.1-0.1
		s0.7-0.2,1.1-0.4v1.4c-0.3,0.2-0.7,0.3-1,0.4C180.6,63.9,180.2,63.9,179.6,63.9z M179.4,58.3c-0.4,0-0.7,0.1-0.9,0.4
		c-0.2,0.2-0.3,0.6-0.4,1h2.6c0-0.5-0.1-0.8-0.4-1C180.1,58.4,179.8,58.3,179.4,58.3z"/>
	<path d="M189.9,62.5c0.3,0,0.7-0.1,1.1-0.2v1.4c-0.5,0.2-1,0.3-1.7,0.3c-0.7,0-1.3-0.2-1.6-0.6c-0.3-0.4-0.5-0.9-0.5-1.7v-3.2h-0.9
		v-0.8l1-0.6l0.5-1.4h1.2v1.4h1.9v1.4h-1.9v3.2c0,0.3,0.1,0.5,0.2,0.6C189.4,62.4,189.6,62.5,189.9,62.5z"/>
	<path d="M196.1,57c0.2,0,0.5,0,0.6,0.1l-0.1,1.7c-0.1,0-0.3-0.1-0.5-0.1c-0.6,0-1,0.1-1.4,0.4c-0.3,0.3-0.5,0.7-0.5,1.3v3.4h-1.8
		v-6.7h1.4l0.3,1.1h0.1c0.2-0.4,0.5-0.7,0.8-0.9C195.3,57.1,195.7,57,196.1,57z"/>
	<path d="M197,57.1h2l1.3,3.8c0.1,0.3,0.2,0.7,0.2,1.2h0c0-0.4,0.1-0.8,0.3-1.2l1.2-3.8h2l-2.8,7.6c-0.3,0.7-0.6,1.2-1.1,1.6
		c-0.5,0.3-1,0.5-1.7,0.5c-0.3,0-0.6,0-0.9-0.1v-1.4c0.2,0.1,0.5,0.1,0.7,0.1c0.3,0,0.6-0.1,0.8-0.3c0.2-0.2,0.4-0.5,0.6-0.9
		l0.1-0.3L197,57.1z"/>
	<path d="M212.3,63.8l-0.4-0.9h0c-0.3,0.4-0.6,0.7-0.9,0.8c-0.3,0.1-0.8,0.2-1.3,0.2c-0.6,0-1.1-0.2-1.5-0.6s-0.6-0.9-0.6-1.6
		c0-0.7,0.2-1.2,0.7-1.6c0.5-0.3,1.2-0.5,2.2-0.6l1.2,0v-0.3c0-0.7-0.3-1-1-1c-0.5,0-1.2,0.2-1.9,0.5l-0.6-1.2
		c0.8-0.4,1.6-0.6,2.6-0.6c0.9,0,1.6,0.2,2.1,0.6c0.5,0.4,0.7,1,0.7,1.8v4.5H212.3z M211.8,60.7l-0.7,0c-0.5,0-0.9,0.1-1.2,0.3
		s-0.4,0.4-0.4,0.8c0,0.5,0.3,0.8,0.9,0.8c0.4,0,0.8-0.1,1-0.4s0.4-0.6,0.4-1V60.7z"/>
	<path d="M221.3,57.1V58l-1,0.3c0.2,0.3,0.3,0.6,0.3,1c0,0.7-0.3,1.3-0.8,1.7c-0.5,0.4-1.2,0.6-2.1,0.6l-0.3,0l-0.3,0
		c-0.2,0.1-0.3,0.3-0.3,0.5c0,0.3,0.3,0.4,1,0.4h1.1c0.7,0,1.3,0.2,1.7,0.5c0.4,0.3,0.6,0.8,0.6,1.4c0,0.8-0.3,1.4-1,1.8
		c-0.7,0.4-1.6,0.6-2.8,0.6c-0.9,0-1.6-0.2-2.1-0.5c-0.5-0.3-0.7-0.8-0.7-1.4c0-0.4,0.1-0.7,0.4-1c0.3-0.3,0.6-0.5,1.1-0.6
		c-0.2-0.1-0.4-0.2-0.5-0.4s-0.2-0.4-0.2-0.6c0-0.3,0.1-0.5,0.2-0.6c0.1-0.2,0.4-0.3,0.6-0.5c-0.4-0.2-0.6-0.4-0.8-0.7
		s-0.3-0.7-0.3-1.2c0-0.7,0.2-1.3,0.7-1.7c0.5-0.4,1.2-0.6,2-0.6c0.2,0,0.4,0,0.7,0.1c0.3,0,0.4,0.1,0.5,0.1H221.3z M216.2,64.7
		c0,0.3,0.1,0.4,0.4,0.6c0.2,0.1,0.6,0.2,1,0.2c0.7,0,1.2-0.1,1.5-0.3c0.4-0.2,0.6-0.4,0.6-0.7c0-0.3-0.1-0.4-0.3-0.5
		c-0.2-0.1-0.6-0.1-1-0.1h-0.9c-0.3,0-0.6,0.1-0.8,0.2S216.2,64.5,216.2,64.7z M216.8,59.3c0,0.4,0.1,0.7,0.2,0.9
		c0.2,0.2,0.4,0.3,0.8,0.3c0.3,0,0.6-0.1,0.8-0.3c0.2-0.2,0.2-0.5,0.2-0.9c0-0.8-0.3-1.2-1-1.2C217.2,58.1,216.8,58.5,216.8,59.3z"
		/>
	<path d="M226.7,63.8l-0.4-0.9h0c-0.3,0.4-0.6,0.7-0.9,0.8c-0.3,0.1-0.8,0.2-1.3,0.2c-0.6,0-1.1-0.2-1.5-0.6
		c-0.4-0.4-0.6-0.9-0.6-1.6c0-0.7,0.2-1.2,0.7-1.6c0.5-0.3,1.2-0.5,2.2-0.6l1.2,0v-0.3c0-0.7-0.3-1-1-1c-0.5,0-1.2,0.2-1.9,0.5
		l-0.6-1.2c0.8-0.4,1.6-0.6,2.6-0.6c0.9,0,1.6,0.2,2.1,0.6c0.5,0.4,0.7,1,0.7,1.8v4.5H226.7z M226.1,60.7l-0.7,0
		c-0.5,0-0.9,0.1-1.2,0.3s-0.4,0.4-0.4,0.8c0,0.5,0.3,0.8,0.9,0.8c0.4,0,0.8-0.1,1-0.4s0.4-0.6,0.4-1V60.7z"/>
	<path d="M229.8,55.4c0-0.6,0.3-0.9,1-0.9c0.7,0,1,0.3,1,0.9c0,0.3-0.1,0.5-0.2,0.7c-0.2,0.2-0.4,0.2-0.7,0.2
		C230.1,56.3,229.8,56,229.8,55.4z M231.7,63.8h-1.8v-6.7h1.8V63.8z"/>
	<path d="M239.8,63.8h-1.8v-3.9c0-0.5-0.1-0.8-0.3-1.1s-0.4-0.4-0.8-0.4c-0.5,0-0.9,0.2-1.1,0.5c-0.2,0.3-0.3,0.9-0.3,1.7v3.2h-1.8
		v-6.7h1.4l0.2,0.9h0.1c0.2-0.3,0.5-0.6,0.8-0.7c0.4-0.2,0.8-0.2,1.2-0.2c0.8,0,1.4,0.2,1.8,0.6c0.4,0.4,0.6,1,0.6,1.8V63.8z"/>
	<path d="M246.7,63.8h-1.8v-9.3h1.8V63.8z"/>
	<path d="M252.8,63.8l-0.4-0.9h0c-0.3,0.4-0.6,0.7-0.9,0.8c-0.3,0.1-0.8,0.2-1.3,0.2c-0.6,0-1.1-0.2-1.5-0.6
		c-0.4-0.4-0.6-0.9-0.6-1.6c0-0.7,0.2-1.2,0.7-1.6c0.5-0.3,1.2-0.5,2.2-0.6l1.2,0v-0.3c0-0.7-0.3-1-1-1c-0.5,0-1.2,0.2-1.9,0.5
		l-0.6-1.2c0.8-0.4,1.6-0.6,2.6-0.6c0.9,0,1.6,0.2,2.1,0.6c0.5,0.4,0.7,1,0.7,1.8v4.5H252.8z M252.3,60.7l-0.7,0
		c-0.5,0-0.9,0.1-1.2,0.3s-0.4,0.4-0.4,0.8c0,0.5,0.3,0.8,0.9,0.8c0.4,0,0.8-0.1,1-0.4s0.4-0.6,0.4-1V60.7z"/>
	<path d="M258.8,62.5c0.3,0,0.7-0.1,1.1-0.2v1.4c-0.5,0.2-1,0.3-1.7,0.3c-0.7,0-1.3-0.2-1.6-0.6c-0.3-0.4-0.5-0.9-0.5-1.7v-3.2h-0.9
		v-0.8l1-0.6l0.5-1.4h1.2v1.4h1.9v1.4H258v3.2c0,0.3,0.1,0.5,0.2,0.6C258.4,62.4,258.6,62.5,258.8,62.5z"/>
	<path d="M264.3,63.9c-1.1,0-1.9-0.3-2.5-0.9c-0.6-0.6-0.9-1.4-0.9-2.5c0-1.1,0.3-2,0.8-2.6c0.6-0.6,1.3-0.9,2.3-0.9
		c0.9,0,1.7,0.3,2.2,0.8c0.5,0.5,0.8,1.3,0.8,2.2v0.9h-4.3c0,0.5,0.2,0.9,0.5,1.2c0.3,0.3,0.7,0.4,1.2,0.4c0.4,0,0.8,0,1.1-0.1
		s0.7-0.2,1.1-0.4v1.4c-0.3,0.2-0.7,0.3-1,0.4C265.3,63.9,264.9,63.9,264.3,63.9z M264.1,58.3c-0.4,0-0.7,0.1-0.9,0.4
		c-0.2,0.2-0.3,0.6-0.4,1h2.6c0-0.5-0.1-0.8-0.4-1C264.8,58.4,264.5,58.3,264.1,58.3z"/>
	<path d="M272.3,57c0.2,0,0.5,0,0.6,0.1l-0.1,1.7c-0.1,0-0.3-0.1-0.5-0.1c-0.6,0-1,0.1-1.4,0.4c-0.3,0.3-0.5,0.7-0.5,1.3v3.4h-1.8
		v-6.7h1.4l0.3,1.1h0.1c0.2-0.4,0.5-0.7,0.8-0.9C271.5,57.1,271.9,57,272.3,57z"/>
	<path d="M273.9,62.9c0-0.3,0.1-0.6,0.3-0.8c0.2-0.2,0.4-0.3,0.8-0.3c0.3,0,0.6,0.1,0.8,0.3c0.2,0.2,0.3,0.4,0.3,0.8
		c0,0.3-0.1,0.6-0.3,0.7c-0.2,0.2-0.4,0.3-0.8,0.3c-0.3,0-0.6-0.1-0.8-0.3C274,63.5,273.9,63.3,273.9,62.9z"/>
</g>
<g id="_1">
	<g id="_Group_213">
		<polygon id="_Path_998" class="st1" points="25.3,26.5 44.8,15.1 79.5,35.4 59.8,46.9 		"/>
		<polygon id="_Path_999" class="st2" points="59.8,67.2 59.8,46.9 79.5,35.4 79.5,55.7 		"/>
		<polygon id="_Path_1000" class="st3" points="25.3,46.8 25.3,26.5 59.8,46.9 59.8,67.2 		"/>
		<path id="_Path_1001" class="st4" d="M65.8,50.6c-0.3,1-1.2,1.7-1.9,1.2c-0.6-0.4-0.7-1.6-0.2-2.5c0.5-0.9,1.1-1,1.6-0.8
			C66,49.1,66.1,49.9,65.8,50.6z"/>
		<path id="_Path_1002" class="st1" d="M65.4,48.6c-0.1-0.1-0.3-0.1-0.4-0.1c0.3,0.5,0.4,1.2,0.2,1.7c-0.3,0.8-0.9,1.4-1.4,1.4
			c0.1,0.1,0.2,0.2,0.2,0.2c0.7,0.4,1.5-0.3,1.9-1.2C66.1,49.9,66,49.1,65.4,48.6z"/>
		<path id="_Path_1003" class="st4" d="M69.5,48.4c-0.3,1-1.2,1.7-1.9,1.2c-0.6-0.4-0.7-1.6-0.2-2.5c0.5-0.9,1.1-1,1.6-0.8
			C69.7,46.9,69.9,47.7,69.5,48.4z"/>
		<path id="_Path_1004" class="st1" d="M69.1,46.5c-0.1-0.1-0.3-0.1-0.4-0.1c0.3,0.5,0.4,1.2,0.2,1.7c-0.2,0.7-0.7,1.3-1.4,1.4
			c0.1,0.1,0.2,0.1,0.2,0.2c0.7,0.4,1.5-0.3,1.9-1.2C69.9,47.8,69.7,47,69.1,46.5z"/>
		<path id="_Path_1005" class="st4" d="M73.3,46.3c-0.3,1-1.2,1.7-1.9,1.2c-0.6-0.4-0.7-1.6-0.2-2.5c0.5-0.9,1.1-1,1.6-0.8
			C73.5,44.8,73.6,45.6,73.3,46.3z"/>
		<path id="_Path_1006" class="st1" d="M72.9,44.3c-0.1-0.1-0.3-0.1-0.4-0.1c0.3,0.5,0.4,1.2,0.2,1.7c-0.3,0.8-0.9,1.4-1.4,1.4
			c0.1,0.1,0.2,0.2,0.2,0.2c0.7,0.4,1.5-0.3,1.9-1.2C73.6,45.6,73.5,44.8,72.9,44.3z"/>
		<path id="_Path_1007" class="st4" d="M77.1,44.2c-0.3,1-1.2,1.7-1.9,1.2C74.6,45,74.5,43.9,75,43c0.5-0.9,1.1-1,1.6-0.8
			C77.2,42.7,77.4,43.5,77.1,44.2z"/>
		<path id="_Path_1008" class="st1" d="M76.6,42.2c-0.1-0.1-0.3-0.1-0.4-0.1c0.3,0.5,0.4,1.2,0.2,1.7c-0.3,0.8-0.9,1.4-1.4,1.4
			c0.1,0.1,0.2,0.2,0.2,0.2c0.7,0.4,1.5-0.3,1.9-1.2C77.4,43.5,77.2,42.7,76.6,42.2z"/>
		<polygon id="_Path_1009" class="st5" points="53.3,59.9 53.3,51.5 57,53.6 57,62.1 		"/>
		<polygon id="_Path_1010" class="st5" points="27.1,35.1 27.1,30 31.7,32.6 31.7,37.8 		"/>
		<polygon id="_Path_1011" class="st5" points="48.7,57.3 48.7,53.1 52.4,55.2 52.4,59.4 		"/>
		<g id="_Group_214">
			<path id="_Compound_Path_41" class="st6" d="M53.7,54.3c-0.3,0-0.5-0.1-0.7-0.2c-0.7-0.4-1.1-1.1-1.2-1.9c-0.3-1,0.1-2.1,1-2.7
				c0.3-0.1,0.7-0.1,1,0c0.6,0.3,1,0.8,1.2,1.5l0,0c0.2,0.6,0.3,1.3,0.1,1.9c-0.1,0.6-0.5,1.1-1,1.3C54,54.2,53.8,54.3,53.7,54.3z
				 M53.2,49.8c-0.1,0-0.2,0-0.3,0c-0.6,0.2-0.9,1.2-0.7,2.2c0.1,0.7,0.5,1.2,1,1.6c0.2,0.1,0.5,0.2,0.8,0.1c0.4-0.2,0.7-0.5,0.7-1
				c0.1-0.6,0.1-1.1-0.1-1.7l0,0c-0.1-0.5-0.5-1-1-1.2C53.5,49.8,53.3,49.8,53.2,49.8L53.2,49.8z"/>
		</g>
		<path id="_Path_1012" class="st6" d="M54.4,51.3c0.3,0.8,0.1,1.8-0.5,2s-1.2-0.4-1.4-1.2c-0.2-0.6,0-1.3,0.6-1.7
			C53.5,50.2,54.1,50.5,54.4,51.3z"/>
		<g id="_Group_215">
			<path id="_Compound_Path_42" class="st6" d="M34,43.3L29,40.3v-5.7l5.1,2.9V43.3z M29.4,40.1l4.1,2.4v-4.6l-4.1-2.4L29.4,40.1z"
				/>
		</g>
		<polygon id="_Path_1013" class="st7" points="35.6,20.7 70.3,40.9 69.5,41.4 34.8,21.1 		"/>
		<polygon id="_Path_1014" class="st8" points="32.9,22.1 67.5,42.4 71.9,39.9 37.1,19.6 		"/>
		<polygon id="_Path_1015" class="st8" points="67.5,42.4 67.5,45.3 72,42.3 71.9,39.9 		"/>
	</g>
	<g id="_Group_216">
		<polygon id="_Path_1016" class="st9" points="31.6,68.2 54,55.1 75.5,67.3 52.7,80.5 		"/>
		<polygon id="_Path_1017" class="st10" points="54,55.3 54,79.6 52.8,80.3 31.9,68.2 		"/>
		<polygon id="_Path_1018" class="st11" points="31.6,78.8 54,65.7 75.5,77.9 52.7,91.1 		"/>
		<polygon id="_Path_1019" class="st12" points="52.7,91.1 52.7,80.5 75.5,67.3 75.5,77.9 		"/>
		<polygon id="_Path_1020" class="st9" points="31.6,78.8 31.6,68.2 52.7,80.5 52.7,91.1 		"/>
		<polygon id="_Path_1021" class="st13" points="23.7,57.7 46.2,44.5 54,55.1 31.6,68.2 		"/>
		<path id="_Compound_Path_43" class="st14" d="M54,55.1L31.6,68.2l21.2,12.3l22.7-13.2L54,55.1z M32.7,68.2L54,55.7l20.4,11.6
			L52.7,79.8L32.7,68.2z"/>
		<g id="_Group_217">
			<polygon id="_Path_1022" class="st13" points="66.1,58.2 43.5,71.3 52.7,80.5 75.5,67.3 			"/>
		</g>
		<path id="_Path_1023" class="st15" d="M66.7,75.5h-0.1c-0.1,0-0.2,0.1-0.2,0.2L63,77.6l0,0l0,0l0,0c-0.4,0.3-0.6,0.8-0.8,1.2
			c-0.2,0.9,0.1,1.7,0.7,1.8c0.2,0,0.4,0,0.6-0.1l0,0c0.1,0,0.2-0.1,0.2-0.1l3.3-1.9l0,0c0.4-0.2,0.6-0.6,0.8-1.2
			c0.2-0.9-0.1-1.7-0.7-1.8H66.7z"/>
		<g id="_Group_218">
			<path id="_Path_1024" class="st16" d="M67.2,75.5c-0.1,0-0.2,0-0.3,0c0.2,0.4,0.3,1,0.1,1.4c-0.1,0.5-0.4,1-0.9,1.2l0,0l-3.3,1.9
				c-0.1,0-0.2,0.1-0.2,0.1l0,0l-0.3,0.1c0.1,0.2,0.3,0.3,0.5,0.4c0.2,0,0.4,0,0.6-0.1l0,0c0.1,0,0.2-0.1,0.2-0.1l3.3-1.9l0,0
				c0.5-0.3,0.8-0.7,0.9-1.2C68,76.5,67.8,75.7,67.2,75.5z"/>
			<polygon id="_Path_1025" class="st16" points="63.4,80.7 63.4,80.7 63.4,80.7 			"/>
		</g>
	</g>
	<g id="_Group_219">
		<polygon id="_Path_1026" class="st17" points="30.8,28.8 30.8,12.2 46.4,21.6 46.4,38.1 		"/>
		<polygon id="_Path_1027" class="st18" points="63.8,11 46.4,21.6 46.4,37.6 63.8,27.7 		"/>
		<polygon id="_Path_1028" class="st19" points="30.5,12.2 47.8,1.8 63.8,11 46.2,21.6 		"/>
	</g>
</g>
</svg>
