<?xml version="1.0" encoding="utf-8"?>
<!-- Generator: Adobe Illustrator 22.0.0, SVG Export Plug-In . SVG Version: 6.00 Build 0)  -->
<svg version="1.1" xmlns="http://www.w3.org/2000/svg" xmlns:xlink="http://www.w3.org/1999/xlink" x="0px" y="0px"
	 viewBox="0 0 433.2 664.2" style="enable-background:new 0 0 433.2 664.2;" xml:space="preserve">
<style type="text/css">
	.st0{display:none;}
	.st1{display:inline;fill:url(#SVGID_1_);}
	.st2{display:inline;fill:url(#SVGID_2_);}
	.st3{fill:url(#SVGID_3_);}
	.st4{fill:url(#SVGID_4_);}
</style>
<g id="Layer_1" class="st0">
	<title>services-wave-bg</title>
	
		<linearGradient id="SVGID_1_" gradientUnits="userSpaceOnUse" x1="4561.7925" y1="-1086.7941" x2="4689.4326" y2="-968.0641" gradientTransform="matrix(0.95 0.58 0.6 -0.82 -3559.8901 -3237.27)">
		<stop  offset="0" style="stop-color:#002EFF"/>
		<stop  offset="0.15" style="stop-color:#3134FF"/>
		<stop  offset="0.38" style="stop-color:#743DFF"/>
		<stop  offset="0.59" style="stop-color:#A843FF"/>
		<stop  offset="0.77" style="stop-color:#CE48FF"/>
		<stop  offset="0.91" style="stop-color:#E54BFF"/>
		<stop  offset="1" style="stop-color:#EE4CFF"/>
	</linearGradient>
	<path class="st1" d="M234.9,154.9c45.5,27.1,96,61.4,99.7,109.1c3.3,41.5-31.6,79.5-22.9,120.6c5.3,25,26.2,46.6,30.2,71.8
		c5.7,35.7-23.5,66.4-53.8,88.6c-46.2,33.7-100,59.7-158.3,73.8c-66.4,16-140.6,15.7-204.9-11.1S-191.7,524.7-198,462.5
		c-5.6-55.6,24.1-107.4,30.4-162.4c5.1-44.8-5.3-90.3-9.1-135.6s0.3-93.5,30.3-128.7C-107.5-9.8-41.5-6.7,11.5,22
		C87.6,63.3,160.7,110.7,234.9,154.9z"/>
	
		<linearGradient id="SVGID_2_" gradientUnits="userSpaceOnUse" x1="4464.0908" y1="-1160.7933" x2="4619.6611" y2="-994.6533" gradientTransform="matrix(0.95 0.58 0.6 -0.82 -3559.8901 -3237.27)">
		<stop  offset="0" style="stop-color:#002EFF"/>
		<stop  offset="1" style="stop-color:#EE4CFF"/>
	</linearGradient>
	<path class="st2" d="M163.3,154.2c45.5,27.1,96,61.4,99.7,109.1c3.3,41.5-31.6,79.5-22.9,120.6c5.3,25,26.2,46.6,30.2,71.8
		c5.7,35.7-23.5,66.4-53.8,88.6C170.3,578,116.6,604,58.3,618c-66.4,16-140.6,15.7-204.9-11.1S-263.3,524-269.6,461.8
		c-5.6-55.6,24.1-107.4,30.4-162.4c5.1-44.8-5.3-90.3-9.1-135.6s0.3-93.5,30.2-128.7c38.9-45.7,104.9-42.5,157.9-13.8
		C16,62.6,89.1,110,163.3,154.2z"/>
</g>
<g id="Layer_2">
	<linearGradient id="SVGID_3_" gradientUnits="userSpaceOnUse" x1="-25.378" y1="302.2285" x2="429" y2="302.2285">
		<stop  offset="0" style="stop-color:#002EFF"/>
		<stop  offset="1" style="stop-color:#EE4CFF"/>
	</linearGradient>
	<path class="st3" d="M2.9,24.5L413.6,214c15.7,7.3,20.6,36.9,9,54.3L219.5,571.9c-4.1,6.1-9.7,9.6-15.4,9.6H-3.5
		c-12.1,0-21.8-14.6-21.8-32.7V55.7C-25.4,33.7-11.1,18,2.9,24.5z"/>
	<linearGradient id="SVGID_4_" gradientUnits="userSpaceOnUse" x1="-88.8039" y1="326.115" x2="365.5741" y2="326.115">
		<stop  offset="0" style="stop-color:#002EFF"/>
		<stop  offset="1" style="stop-color:#EE4CFF"/>
	</linearGradient>
	<path class="st4" d="M-60.5,48.4l410.7,189.5c15.7,7.3,20.6,36.9,9,54.3L156.1,595.8c-4.1,6.1-9.7,9.6-15.4,9.6H-67
		c-12.1,0-21.8-14.6-21.8-32.7V79.6C-88.8,57.6-74.6,41.9-60.5,48.4z"/>
</g>
</svg>
