<svg id="Layer_2" data-name="Layer 2" xmlns="http://www.w3.org/2000/svg" xmlns:xlink="http://www.w3.org/1999/xlink" viewBox="0 0 433.18 474.23">
  <defs>
    <style>
      .cls-1 {
        fill: url(#linear-gradient);
      }
    </style>
    <linearGradient id="linear-gradient" x1="294.88" y1="380.8" x2="442.84" y2="194.24" gradientUnits="userSpaceOnUse">
      <stop offset="0" stop-color="#002eff"/>
      <stop offset="0.15" stop-color="#3134ff"/>
      <stop offset="0.38" stop-color="#743dff"/>
      <stop offset="0.59" stop-color="#a843ff"/>
      <stop offset="0.77" stop-color="#ce48ff"/>
      <stop offset="0.91" stop-color="#e54bff"/>
      <stop offset="1" stop-color="#ee4cff"/>
    </linearGradient>
  </defs>
  <title>services-wave-bg-bottom</title>
  <path class="cls-1" d="M433,6.12s-85,59-95,141-35,109-101,148-52,60-72,98-77,81-149,81H433Z"/>
</svg>
